221.130.29.184:8888
210.34.0.227:8080
59.172.208.190:8080
60.211.208.203:80
61.147.82.87:8000
218.91.206.146:8001
58.20.127.178:3128
60.169.3.21:8080
221.232.247.27:443
202.103.243.122:1080
125.39.66.153:80
124.67.215.9:80
114.80.136.112:7780
114.104.203.12:80
221.130.17.57:84
121.192.190.101:9999
202.202.0.163:3128
58.20.127.100:3128
221.2.80.126:8888
101.227.14.160:8080
58.20.127.106:3128
59.172.208.189:8080
110.4.24.173:82
114.80.81.51:80
221.10.102.203:82
124.160.194.72:80
60.222.224.135:8888
58.20.223.230:3128
119.187.148.102:8000
114.104.203.10:81
222.83.14.143:3128
61.174.9.96:8080
119.188.46.42:8080
218.203.54.8:80
120.198.230.102:85
120.198.230.62:81
111.11.27.195:80
221.176.14.72:80
60.220.212.10:80
58.22.0.54:80
218.108.170.166:82
221.10.40.234:843
117.41.182.188:8080
112.65.230.187:8081
114.104.203.14:83
60.195.251.78:8080
221.210.40.150:8080
117.25.129.238:8888
182.48.107.219:9000
211.152.50.70:80
210.51.3.42:8080
219.143.207.140:3128
120.193.17.162:8888
58.20.127.26:3128
223.4.55.66:80
210.73.220.18:8088
218.201.21.176:80
175.45.59.38:8080
203.110.160.14:8888
59.120.22.30:8080
203.78.36.245:85
202.106.16.36:3128
119.97.145.15:8080
116.112.66.102:808
58.247.178.239:8081
221.125.52.178:8080
222.87.129.30:80
